{
  "students": [
    {
      "id": 1,
      "name": "Joe",
      "lastname": "Doe",
      "birthdate": "1980-01-23",
      "gender": "male",
      "university": "University 10",
      "carrer": "Informatica",
      "admissionDate": "2017-10-01",
      "address": "San José",
      "active": true
    },
    {
      "id": 2,
      "name": "María",
      "lastname": "Perez",
      "birthdate": "1981-02-24",
      "gender": "female",
      "university": "University 9",
      "carrer": "Administracion",
      "admissionDate": "2018-09-01",
      "address": "Heredia",
      "active": false
    },
    {
      "id": 3,
      "name": "Juan",
      "lastname": "Monge",
      "birthdate": "1982-03-25",
      "gender": "male",
      "university": "University 8",
      "carrer": "Medicina",
      "admissionDate": "2015-11-01",
      "address": "Limón",
      "active": true
    },
    {
      "id": 4,
      "name": "Pedro",
      "lastname": "Alvarez",
      "birthdate": "1983-04-26",
      "gender": "male",
      "university": "University 7",
      "carrer": "Contabilidad",
      "admissionDate": "2013-12-01",
      "address": "Puntarenas",
      "active": false
    },
    {
      "id": 5,
      "name": "Andrea",
      "lastname": "Quintana",
      "birthdate": "1984-05-27",
      "gender": "female",
      "university": "University 6",
      "carrer": "Odontologia",
      "admissionDate": "2014-02-01",
      "address": "Cartago",
      "active": true
    },
    {
      "id": 6,
      "name": "Mario",
      "lastname": "Sosa",
      "birthdate": "1985-06-28",
      "gender": "male",
      "university": "University 5",
      "carrer": "Informatica",
      "admissionDate": "2019-04-01",
      "address": "Puntarenas",
      "active": false
    },
    {
      "id": 7,
      "name": "Luisa",
      "lastname": "Chavarria",
      "birthdate": "1986-07-29",
      "gender": "female",
      "university": "University 4",
      "carrer": "Administracion",
      "admissionDate": "2018-03-01",
      "address": "Guanacaste",
      "active": true
    },
    {
      "id": 8,
      "name": "Pepe",
      "lastname": "Flores",
      "birthdate": "1987-08-01",
      "gender": "male",
      "university": "University 3",
      "carrer": "Medicina",
      "admissionDate": "2017-06-01",
      "address": "San José",
      "active": false
    },
    {
      "id": 9,
      "name": "Gabriela",
      "lastname": "Chinchilla",
      "birthdate": "1988-09-13",
      "gender": "female",
      "university": "University 2",
      "carrer": "Contabiliad",
      "admissionDate": "2016-07-01",
      "address": "Heredia",
      "active": true
    },
    {
      "id": 10,
      "name": "Alex",
      "lastname": "Rojas",
      "birthdate": "1989-10-18",
      "gender": "male",
      "university": "University 1",
      "carrer": "Odontologia",
      "admissionDate": "2014-08-01",
      "address": "Cartago",
      "active": false
    }
  ]
}